{
  "project_info": {
    "project_number": "378413160606",
    "project_id": "saheer-is",
    "storage_bucket": "saheer-is.appspot.com"
  },
  "client": [
    {
      "client_info": {
        "mobilesdk_app_id": "1:378413160606:android:0a281c217bd2aaafe4838f",
        "android_client_info": {
          "package_name": "com.sa.saheer"
        }
      },
      "oauth_client": [
        {
          "client_id": "378413160606-4bqe2ck21h2n2tnr6oc4hkp812ae1fo5.apps.googleusercontent.com",
          "client_type": 3
        }
      ],
      "api_key": [
        {
          "current_key": "AIzaSyDv2OvQs9l5VcXHzHHmglgVgbbFNr4PK_A"
        }
      ],
      "services": {
        "appinvite_service": {
          "other_platform_oauth_client": [
            {
              "client_id": "378413160606-4bqe2ck21h2n2tnr6oc4hkp812ae1fo5.apps.googleusercontent.com",
              "client_type": 3
            }
          ]
        }
      }
    }
  ],
  "configuration_version": "1"
}